    1	Aaron M. Ucko 	ucko 
    2	Abhijith PA 	abhijith 
    3	Adam Borowski 	kilobyte 
    4	Adam Conrad 	adconrad 
    5	Adam D. Barratt 	adsb 
    6	Adam Majer 	adamm 
    7	Adam Powell 	hazelsct 
    8	Adrian Bunk 	bunk 
    9	Adriano Rafael Gomes 	adrianorg 
   10	Adrian Perez 	blackxored 
   11	Afif Elghraoui 	afif 
   12	Agustin Henze 	tin 
   13	Agustín Martín Domingo 	agmartin 
   14	Aigars Mahinovs 	aigarius 
   15	Akira Ohashi 	bg66 
   16	Akira Yamada 	akira 
   17	Alan Woodland 	awoodland 
   18	Alastair McKinstry 	mckinstry 
   19	Alban Vidal 	zordhak 
   20	Albert Huang 	ash 
   21	Alberto Garcia 	berto 
   22	Alberto Gonzalez Iniesta 	agi 
   23	Albin Tonnerre 	lutin 
   24	Alejandro Garrido Mota 	alejandro 
   25	Alen Zekulic 	azekulic 
   26	Alessandro Ghedini 	ghedo 
   27	Alessio Treglia 	alessio 
   28	Alexander Chernyakhovsky 	achernya 
   29	Alexander GQ Gerasiov 	gq 
   30	Alexander List 	alex 
   31	Alexander Sack 	asac 
   32	Alexander Wirt 	formorer 
   33	Alexander Zangerl 	az 
   34	Alexandre Delanoë 	anoe 
   35	Alexandre Mestiashvili 	mestia 
   36	Alexandre Viau 	aviau 
   37	Alexei Nikolov 	clown 
   38	Alex Muntada 	alexm 
   39	Alex Pennace 	alexp 
   40	Allison Randal 	wendar 
   41	Al Stone 	ahs3 
   42	Amaya Rodrigo Sastre 	amaya 
   43	Amos Waterland 	apw 
   44	Ana Beatriz Guerrero López 	ana 
   45	Ana Carolina Comandulli 	caroll 
   46	Ana Custura 	acute 
   47	Anders Hammarquist 	iko 
   48	Andrea Capriotti 	capriott 
   49	Andrea Colangelo 	warp10 
   50	Andrea Mennucci 	mennucc1 
   51	Andreas Barth 	aba 
   52	Andreas Beckmann 	anbe 
   53	Andreas B. Mundt 	andi 
   54	Andreas Boll 	aboll 
   55	Andreas E. Bombe 	aeb 
   56	Andreas Franzen 	anfra 
   57	Andreas Henriksson 	ah 
   58	Andreas Metzler 	ametzler 
   59	Andreas Rönnquist 	gusnan 
   60	Andreas Tille 	tille 
   61	Andree Leidenfrost 	andree 
   62	Andrej Shadura 	andrewsh 
   63	Andre Luis Lopes 	andrelop 
   64	Andrés Roldán 	aroldan 
   65	Andres Salomon 	dilinger 
   66	Andrew Lee 	ajqlee 
   67	Andrew Martin Adrian Cater 	amacater 
   68	Andrew McMillan 	awm 
   69	Andrew Mitchell 	ajmitch 
   70	Andrew Pollock 	apollock 
   71	Andrew Starr-Bochicchio 	asb 
   72	Andrey Rahmatullin 	wrar 
   73	Andrius Merkys 	merkys 
   74	Andy Li 	andyli 
   75	Andy Simpkins 	rattusrattus 
   76	Angel Abad 	angel 
   77	Angel Ramos 	seamus 
   78	Angus Lees 	gus 
   79	Anibal Monsalve Salazar 	anibal 
   80	Anselm Lingnau 	lingnau 
   81	Ansgar Burchardt 	ansgar 
   82	Anthony Fok 	foka 
   83	Anthony Towns 	ajt 
   84	Antoine Beaupré 	anarcat 
   85	Anton Gladky 	gladk 
   86	Antonin Kral 	krala 
   87	Antonio Radici 	antonio 
   88	Antonio Terceiro 	terceiro 
   89	Anton Zinoviev 	zinoviev 
   90	Apollon Oikonomopoulos 	apoikos 
   91	Ardo van Rangelrooij 	ardo 
   92	Ari Pollak 	ari 
   93	Arnaud Fontaine 	arnau 
   94	Arnaud Quette 	aquette 
   95	Arno Töll 	arno 
   96	Aron Xu 	aron 
   97	Arthur de Jong 	adejong 
   98	Arto Jantunen 	viiru 
   99	Arturo Borrero González 	arturo 
  100	Asheesh Laroia 	paulproteus 
  101	Asias He 	asias 
  102	Atsushi Kamoshida 	kamop 
  103	Attila Szalay 	sasa 
  104	Aurélien Couderc 	coucouf 
  105	Aurelien Jarno 	aurel32 
  106	Axel Beckert 	abe 
  107	Balasankar Chelamattathu 	balasankarc 
  108	Balint Reczey 	rbalint 
  109	Barak A. Pearlmutter 	bap 
  110	Barry deFreese 	bdefreese 
  111	Barry Warsaw 	barry 
  112	Bart Martens 	bartm 
  113	Bartosz Fenski 	fenio 
  114	Bastian Blank 	waldi 
  115	Bastian Venthur 	venthur 
  116	Bastien Roucariès 	rouca 
  117	Bas Wijnen 	wijnen 
  118	Bas Zoetekouw 	bas 
  119	Bdale Garbee 	bdale 
  120	Ben Armstrong 	synrg 
  121	Ben Burton 	bab 
  122	Ben Finney 	bignose 
  123	Ben Hutchings 	benh 
  124	Benjamin Barenblat 	bbaren 
  125	Benjamin Drung 	bdrung 
  126	Benjamin Hill 	mako 
  127	Benjamin Mesing 	ben 
  128	Ben Pfaff 	pfaffben 
  129	Bernd Schumacher 	bs 
  130	Bernd Zeimetz 	bzed 
  131	Bernhard R. Link 	brlink 
  132	Bernhard Schmidt 	berni 
  133	Bertrand Marc 	bmarc 
  134	Bill Allombert 	ballombe 
  135	Boris Pek 	tehnick 
  136	Boyuan Yang 	byang 
  137	Bradley Bosch 	brad 
  138	Branden Robinson 	branden 
  139	Brendan O'Dea 	bod 
  140	Breno Leitao 	leitao 
  141	Brian Gupta 	bgupta 
  142	Brian May 	bam 
  143	Brian Pellin 	bpellin 
  144	Brian Ristuccia 	brianr 
  145	Brian Thomason 	iamfuzz 
  146	Brian White 	bcwhite 
  147	Brice Goglin 	bgoglin 
  148	Bruno Kleinert 	fuddl 
  149	Cameron Dale 	camrdale 
  150	Camm Maguire 	camm 
  151	Carl Chenet 	chaica 
  152	Carlos Laviola 	claviola 
  153	Carlo U. Segre 	segre 
  154	Carl Worth 	cworth 
  155	Carsten Hey 	carsten 
  156	Carsten Leonhardt 	leo 
  157	Carsten Schoenert 	tijuca 
  158	Cédric Boutillier 	boutil 
  159	Cédric Delfosse 	cedric 
  160	Changwoo Ryu 	cwryu 
  161	ChangZhuo Chen 	czchen 
  162	Charles Plessy 	plessy 
  163	Chen Baozi 	baozich 
  164	Chris Boot 	bootc 
  165	Chris Boyle 	cmb 
  166	Chris Halls 	halls 
  167	Chris Lamb 	lamby 
  168	Christian Bayle 	bayle 
  169	Christian Hofstaedtler 	zeha 
  170	Christian Hudon 	chrish 
  171	Christian Kastner 	ckk 
  172	Christian Marillat 	marillat 
  173	Christian T. Steigies 	cts 
  174	Christine Christine Spang 	christine 
  175	Christoph Berg 	myon 
  176	Christoph Biedl 	cbiedl 
  177	Christoph Egger 	christoph 
  178	Christopher Knadle 	krait 
  179	Christopher Lawrence 	lawrencc 
  180	Christopher L. Cheney 	ccheney 
  181	Christopher Stuart Hoskin 	mans0954 
  182	Christopher Taylor 	ctaylor 
  183	Christoph Göhre 	gris 
  184	Christoph Haas 	haas 
  185	Christoph Martin 	chrism 
  186	Christos Trochalakis 	ctrochalakis 
  187	Chrysostomos Nanakos 	cnanakos 
  188	Chuan-kai Lin 	cklin 
  189	Claire Connelly 	cmc 
  190	Clément Hermann 	nodens 
  191	Cleto Martín Angelina 	cleto 
  192	Clint Adams 	clint 
  193	Clint Byrum 	spamaps 
  194	Colin Tuckley 	colint 
  195	Colin Watson 	cjwatson 
  196	Cord Beermann 	cord 
  197	Craig Sanders 	cas 
  198	Craig Small 	csmall 
  199	Cristian Greco 	cristian 
  200	Cyril Bouthors 	cyb 
  201	Cyril Brulebois 	kibi 
  202	Dafydd Harries 	daf 
  203	Daigo Moriwaki 	daigo 
  204	Daisuke Higuchi 	dai 
  205	Dale Martin 	dmartin 
  206	Damyan Ivanov 	dmn 
  207	Danai Sae-Han 	danai 
  208	Daniel Baumann 	daniel 
  209	Daniel Echeverry 	epsilon 
  210	Daniele Tricoli 	eriol 
  211	Daniel Glassey 	wdg 
  212	Daniel Kahn Gillmor 	dkg 
  213	Daniel Lange 	dlange 
  214	Daniel Leidert 	dleidert 
  215	Daniel Lenharo de Souza 	lenharo 
  216	Daniel Schepler 	schepler 
  217	Daniel Silverstone 	dsilvers 
  218	Dann Frazier 	dannf 
  219	Dario Minnucci 	midget 
  220	Dariusz Dwornikowski 	darek 
  221	Dato Simó 	dato 
  222	Dave Beckett 	dajobe 
  223	Dave Holland 	dave 
  224	David Bremner 	bremner 
  225	Davide G.M. Salvetti 	salve 
  226	Davide Puricelli 	evo 
  227	David I. Lehn 	dlehn 
  228	David Kalnischkies 	donkult 
  229	David L. Coe 	davidc 
  230	David Nusinow 	dnusinow 
  231	David Paleino 	dapal 
  232	David Prévot 	taffit 
  233	David Spreen 	netzwurm 
  234	David Steele 	steele 
  235	David Watson 	dwatson 
  236	David Weinehall 	tao 
  237	Deepak Tripathi 	deepak 
  238	Denis Barbier 	barbier 
  239	Denis Briand 	denis 
  240	Dennis L. Clark 	dbugger 
  241	Diane Trout 	diane 
  242	Didier Raboud 	odyx 
  243	Dima Barsky 	dima 
  244	Dima Kogan 	dkogan 
  245	Dimitri Ledkov 	xnox 
  246	Dirk Eddelbuettel 	edd 
  247	Dmitry Borodaenko 	angdraug 
  248	Dmitry Oboukhov 	unera 
  249	Dmitry Shachnev 	mitya57 
  250	Dmitry Smirnov 	onlyjob 
  251	Domenico Andreoli 	cavok 
  252	Dominic Hargreaves 	dom 
  253	Dominik George 	natureshadow 
  254	Dominique Belhachemi 	domibel 
  255	Dominique Dumont 	dod 
  256	Donald Norwood 	donald 
  257	Don Armstrong 	don 
  258	Drake Diedrich 	dld 
  259	Drew Parsons 	dparsons 
  260	Dylan Aïssi 	daissi 
  261	Ean Schuessler 	ean 
  262	Ed Boraas 	ed 
  263	Edelhard Becker 	edelhard 
  264	Eduard Bloch 	blade 
  265	Eduardo Trápani 	mapache 
  266	Edward Betts 	edward 
  267	Eike Sauer 	eike 
  268	Elana Hashman 	ehashman 
  269	Elena Grandi 	valhalla 
  270	Eloy A. Paris 	peloy 
  271	Emanuele Rocca 	ema 
  272	Emfox Zhou 	emfox 
  273	Emilio Pozuelo Monfort 	pochu 
  274	Emmanuel Bourg 	ebourg 
  275	Emmanuel Bouthenot 	kolter 
  276	Emmanuel Kasper Kasprzyk 	manu 
  277	Enrico Tassi 	gareuselesinge 
  278	Enrico Zini 	enrico 
  279	Eric Delaunay 	delaunay 
  280	Eric Dorland 	eric 
  281	Eric Evans 	eevans 
  282	Erich Schubert 	erich 
  283	Eric Sharkey 	sharkey 
  284	Erik Schanze 	eriks 
  285	Erik Wenzel 	erik 
  286	Erinn Clark 	erinn 
  287	Eugene V. Lyubimkin 	jackyf 
  288	Eugene Zhukov 	eugene 
  289	Eugeniy Meshcheryakov 	eugen 
  290	Evgeni Golov 	evgeni 
  291	Fabian Fagerholm 	fabbe 
  292	Fabian Greffrath 	fabian 
  293	Fabio Tranchitella 	kobold 
  294	Faidon Liambotis 	paravoid 
  295	Falk Hueffner 	falk 
  296	Fathi Boudra 	fabo 
  297	Federico Ceratto 	federico 
  298	Federico Di Gregorio 	fog 
  299	Felipe Augusto van de Wiel 	faw 
  300	Felipe Sateler 	fsateler 
  301	Felix Geyer 	fgeyer 
  302	Felix Lechner 	lechner 
  303	Ferenc Wágner 	wferi 
  304	Filippo Giunchedi 	filippo 
  305	Filippo Rusconi 	lopippo 
  306	Florian Ernst 	florian 
  307	Florian Hinzmann 	fh 
  308	Florian Lohoff 	flo 
  309	Florian Schlichting 	fsfs 
  310	Florian Weimer 	fw 
  311	Francesca Ciceri 	madamezou 
  312	Francesco Lovergine 	frankie 
  313	Francesco Namuri 	franam 
  314	Francisco Manuel García Claramonte 	francisco 
  315	Francois Marier 	francois 
  316	Frank Küster 	frank 
  317	Frank Lichtenheld 	djpig 
  318	Frédéric Bonnard 	frediz 
  319	Frédéric-Emmanuel Picca 	picca 
  320	Frederic Peters 	fpeters 
  321	Frederik Schüler 	fs 
  322	Fredrik Hallenberg 	hallon 
  323	Free Ekanayaka 	freee 
  324	Gard Spreemann 	gspr 
  325	Gaudenz Steinlin 	gaudenz 
  326	Geert Stappers 	stappers 
  327	Gennaro Oliva 	oliva 
  328	George Danchev 	danchev 
  329	Georges Khaznadar 	georgesk 
  330	Georg Faerber 	georg 
  331	Gerrit Pape 	pape 
  332	Gert Wollny 	gewo 
  333	Giacomo Catenazzi 	cate 
  334	Gianfranco Costamagna 	locutusofborg 
  335	Gilles Filippini 	pini 
  336	Giovani Augusto Ferreira 	giovani 
  337	Giovanni Mascellani 	gio 
  338	Giuseppe Sacco 	eppesuig 
  339	Gleydson Mazioli da Silva 	gleydson 
  340	Goedson Teixeira Paixao 	goedson 
  341	Gonéri Le Bouder 	goneri 
  342	Göran Weinholt 	weinholt 
  343	Gordon Ball 	chronitis 
  344	Graham Inggs 	ginggs 
  345	Gregor Herrmann 	gregoa 
  346	Gregory Colpart 	reg 
  347	Guido Guenther 	agx 
  348	Guido Trotter 	ultrotter 
  349	Guilhem Moulin 	guilhem 
  350	Guillem Jover 	guillem 
  351	Gunnar Wolf 	gwolf 
  352	Gustavo Franco 	stratus 
  353	Gustavo Noronha 	kov 
  354	Gustavo Panizzo 	gfa 
  355	Guus Sliepen 	guus 
  356	Hakan Ardo 	hakan 
  357	Hannes von Haugwitz 	hvhaugwitz 
  358	Hanno Wagner 	wagner 
  359	Hans-Christoph Steiner 	eighthave 
  360	Harlan Lieberman-Berg 	hlieberman 
  361	Harshula Jayasuriya 	harshula 
  362	Hector Garcia 	hector 
  363	Hector Oron 	zumbi 
  364	Heiko Stübner 	mmind 
  365	Helen Faulkner 	helen 
  366	Helmut Grohne 	helmutg 
  367	Henning Glawe 	glaweh 
  368	Henrique de Moraes Holschuh 	hmh 
  369	Herbert Parentes Fortes Neto 	hpfn 
  370	Hideki Yamane 	henrich 
  371	Hilko Bengen 	bengen 
  372	Holger Levsen 	holger 
  373	Holger Wansing 	holgerw 
  374	Hubert Chan 	uhoreg 
  375	Hugo Lefeuvre 	hle 
  376	Hwei Sheng Teoh 	hsteoh 
  377	Iain Lane 	laney 
  378	Iain R. Learmonth 	irl 
  379	Ian Beckwith 	ianb 
  380	Ian Jackson 	iwj 
  381	Ian James Campbell 	ijc 
  382	Ian Wienand 	ianw 
  383	Ilias Tsitsimpis 	iliastsi 
  384	intrigeri 	intrigeri 
  385	IOhannes m zmölnig 	umlaeute 
  386	Iustin Pop 	iustin 
  387	Ivan Kohler 	ivan 
  388	Ivo De Decker 	ivodd 
  389	Jaakko Niemi 	liiwi 
  390	Jaime Robles 	jaime 
  391	Jakob Haufe 	sur5r 
  392	Jakub Wilk 	jwilk 
  393	Jaldhar H. Vyas 	jaldhar 
  394	James Bromberger 	jeb 
  395	James Cowgill 	jcowgill 
  396	James Downing Page 	jamespage 
  397	James McCoy 	jamessan 
  398	James Troup 	troup 
  399	Jamie Wilkinson 	jaq 
  400	Jan Dittberner 	jandd 
  401	Jan Hauke Rahm 	jhr 
  402	Jan Lübbe 	jluebbe 
  403	Jan Niehusmann 	jan 
  404	Janos Guljas 	janos 
  405	Jan Wagner 	waja 
  406	Jason Thomas 	jason 
  407	Javier Fernandez-Sanguino Peña 	jfs 
  408	Javier Merino Cacho 	vicho 
  409	Jay Berkenbilt 	qjb 
  410	Jay Bonci 	jaybonci 
  411	Jean Baptiste Favre 	jbfavre 
  412	Jean-Michel Kelbert 	kelbert 
  413	Jean-Michel Vourgère 	nirgal 
  414	Jean-Philippe MENGUAL 	jpmengual 
  415	Jeff Breidenbach 	jab 
  416	Jeffrey Ratcliffe 	jjr 
  417	Jeff Teunissen 	deek 
  418	Jelmer Vernooij 	jelmer 
  419	Jérémie Corbier 	jcorbier 
  420	Jeremy Bicha 	jbicha 
  421	Jérémy Bobbio 	lunar 
  422	Jeremy Bouse 	jbouse 
  423	Jeremy Lainé 	sharky 
  424	Jérémy Lal 	kapouer 
  425	Jeroen van Wolffelaar 	jeroen 
  426	Jerome Charaoui 	lavamind 
  427	Jerome Georges Benoit 	calculus 
  428	Jessica Clarke 	jrtc27 
  429	Jim Meyering 	meyering 
  430	Jimmy Kaplowitz 	jimmy 
  431	Joachim Breitner 	nomeata 
  432	Joachim Reichel 	reichel 
  433	Joao Eriberto Mota Filho 	eriberto 
  434	Jochen Sprickerhof 	jspricke 
  435	Joel Rosdahl 	joel 
  436	Joerg Jaspert 	joerg 
  437	Johannes Schauer 	josch 
  438	Johann Felix Soden 	johfel 
  439	John Francesco Ferlito 	johnf 
  440	John Goerzen 	jgoerzen 
  441	John H. IV Robinson 	jaqque 
  442	John Leuner 	jewel 
  443	John Lightsey 	lightsey 
  444	John Lines 	jlines 
  445	John Paul Adrian Glaubitz 	glaubitz 
  446	John Sullivan 	johns 
  447	John V. Belmonte 	jbelmonte 
  448	John Wright 	jsw 
  449	Jonas Genannt 	genannt 
  450	Jonas Meurer 	mejo 
  451	Jonas Smedegaard 	js 
  452	Jonathan Bustillos 	jathan 
  453	Jonathan Cristopher Carter 	jcc 
  454	Jonathan Dowland 	jmtd 
  455	Jonathan Marler 	jmarler 
  456	Jonathan McDowell 	noodles 
  457	Jonathan Nieder 	jrnieder 
  458	Jonathan Oxer 	jon 
  459	Jonathan Wiltshire 	jmw 
  460	Jon Bernard 	jbernard 
  461	Jonny Lamb 	jonny 
  462	Joost van Baal 	joostvb 
  463	Jordi Mallach 	jordi 
  464	Jörgen Hägg 	jh 
  465	Jorge Salamero Sanz 	bencer 
  466	José L. Redrejo Rodríguez 	jredrejo 
  467	Jose Luis Rivas Contreras 	ghostbar 
  468	Jose M. Calhariz 	calhariz 
  469	Jose M. Moya 	josem 
  470	Jose Parrella 	bureado 
  471	Joseph Herlant 	aerostitch 
  472	Jo Shields 	directhex 
  473	Joshua Kwan 	joshk 
  474	Josip Rodin 	joy 
  475	Josselin Mouette 	joss 
  476	Josué Abarca 	jmaslibre 
  477	Josué Ortega 	josue 
  478	Juan Cespedes 	cespedes 
  479	Juan Gregorio Hernando Rivero 	ghe 
  480	Judit Foglszinger 	urbec 
  481	Julian Andres Klode 	jak 
  482	Juliane Friederike Holzt 	jule 
  483	Julian Gilbey 	jdg 
  484	Julián Moreno Patiño 	julian 
  485	Julien Cristau 	jcristau 
  486	Julien Patriarca 	leatherface 
  487	Julien Puydt 	jpuydt 
  488	Junichi Uekawa 	dancer 
  489	Kai-Chung Yan 	seamlik 
  490	Kai Wasserbäch 	curan 
  491	Kamal Mostafa 	kamal 
  492	Kanru Chen 	koster 
  493	Karen M Sandler 	karen 
  494	Kåre Thor Olsen 	kaare 
  495	Kari Pahula 	kaol 
  496	Karl Ramm 	kcr 
  497	Karsten Merker 	merker 
  498	Kartik Mistry 	kartik 
  499	Kees Cook 	kees 
  500	Keita Maehara 	maehara 
  501	Keith Packard 	keithp 
  502	Keng-Yu Lin 	kengyu 
  503	Kenneth J. Pronovici 	pronovic 
  504	Kevin Coyner 	kcoyner 
  505	Kevin M. Rosenberg 	kmr 
  506	Khalid Aziz 	khalid 
  507	Kilian Krause 	kilian 
  508	Klee Dienes 	klee 
  509	Konstantinos Margaritis 	markos 
  510	Krzysztof Krzyzaniak 	eloy 
  511	Kumar Appaiah 	akumar 
  512	Kunal Mehta 	legoktm 
  513	Kurt Roeckx 	kroeckx 
  514	Kyle Robbertze 	paddatrapper 
  515	Lamont Jones 	lamont 
  516	Lars Bahner 	bahner 
  517	László Böszörményi 	gcs 
  518	Laszlo Kajan 	lkajan 
  519	Laura Arjona Reina 	larjona 
  520	Laurence Lane 	ljlane 
  521	Laurent Bigonville 	bigon 
  522	Lenart Janos 	ocsi 
  523	Leo Costela 	costela 
  524	Lev Lamberov 	dogsleg 
  525	Liang Guo 	guoliang 
  526	Lionel Elie Mamane 	lmamane 
  527	Lior Kaplan 	kaplan 
  528	Lisa Baron 	jeffity 
  529	Lisandro Damián Nicanor Pérez Meyer 	lisandro 
  530	Loic Dachary 	loic 
  531	Loïc Minier 	lool 
  532	Loong Jin Chow 	hyperair 
  533	Louis-Philippe Véronneau 	pollo 
  534	Luca Boccassi 	bluca 
  535	Luca Bruno 	lucab 
  536	Luca Falavigna 	dktrkranz 
  537	Luca Filipozzi 	lfilipoz 
  538	Lucas Kanashiro 	kanashiro 
  539	Lucas Nussbaum 	lucas 
  540	Luciano Bello 	luciano 
  541	Ludovic Brenta 	lbrenta 
  542	Ludovic Drolez 	ldrolez 
  543	Ludovico Cavedon 	cavedon 
  544	Ludovico Gardenghi 	garden 
  545	Ludovic Rousseau 	rousseau 
  546	Luigi Gangitano 	luigi 
  547	Lukasz Jachowicz 	honey 
  548	Luke Faraone 	lfaraone 
  549	Maarten Bernardus Lankhorst 	maarten 
  550	Magnus Holmgren 	holmgren 
  551	Maitland Bottoms 	bottoms 
  552	Makoto OHURA 	ohura 
  553	Manoj Srivastava 	srivasta 
  554	Manuel A. Fernandez Montecelo 	mafm 
  555	Manuel Prinz 	manuel 
  556	Marc Dequènes 	duck 
  557	Marcela Tiznado 	mlt 
  558	Marcelo Jorge Vieira 	metal 
  559	Marc Haber 	zugschlus 
  560	Marcin Kulisz 	kula 
  561	Marcin Owsiany 	porridge 
  562	Marcio de Souza Oliveira 	marciosouza 
  563	Marco d'Itri 	md 
  564	Marco Nenciarini 	mnencia 
  565	Marco Presi 	zufus 
  566	Marc Singer 	elf 
  567	Margarita Manterola 	marga 
  568	Mario Joussen 	joussen 
  569	Mark Brown 	broonie 
  570	Mark Eichin 	eichin 
  571	Mark Hymers 	mhy 
  572	Mark Purcell 	msp 
  573	Mark Shuttleworth 	marks 
  574	Markus Frosch 	lazyfrosch 
  575	Markus Koschany 	apo 
  576	Markus Wanner 	markus 
  577	Martijn van Brummelen 	mvb 
  578	Martina Ferrari 	tincho 
  579	Martin A. Godisch 	godisch 
  580	Martin Albert 	ma 
  581	Martin Bagge 	brother 
  582	Martin Buck 	mbuck 
  583	Martin F. Krafft 	madduck 
  584	Martin Loschwitz 	madkiss 
  585	Martin Meredith 	mez 
  586	Martin Michlmayr 	tbm 
  587	Martin Pitt 	mpitt 
  588	Martin Quinson 	mquinson 
  589	Martin Schulze 	joey 
  590	Martin Wuertele 	maxx 
  591	Martin Zobel-Helas 	zobel 
  592	Masahito Omote 	omote 
  593	Masanori Goto 	gotom 
  594	Masayuki Hatta 	mhatta 
  595	Mathias Behrle 	mbehrle 
  596	Mathieu Malaterre 	malat 
  597	Mathieu Parent 	sathieu 
  598	Matteo F. Vescovi 	mfv 
  599	Matthew Brown 	mattb 
  600	Matthew Danish 	mrd 
  601	Matthew Garrett 	mjg59 
  602	Matthew Grant 	grantma 
  603	Matthew Palmer 	mpalmer 
  604	Matthew Vernon 	matthew 
  605	Matthias Klose 	doko 
  606	Matthias Klumpp 	mak 
  607	Matthias Urlichs 	smurf 
  608	Matthieu Caneill 	matthieucan 
  609	Matthijs Möhlmann 	matthijs 
  610	Mattia Dongili 	malattia 
  611	Mattia Rizzolo 	mattia 
  612	Mattias Ellert 	ellert 
  613	Mattias Nordstrom 	mnordstr 
  614	Mattias Wadenstein 	maswan 
  615	Matt Kraai 	kraai 
  616	Matt Taggart 	taggart 
  617	Matt Zimmerman 	mdz 
  618	Maximilian Attems 	maks 
  619	Maximiliano Curia 	maxy 
  620	Max Vozeler 	xam 
  621	Mazen Neifer 	mazen 
  622	Mechtilde Stehmann 	mechtilde 
  623	Mehdi Dogguy 	mehdi 
  624	Miah Gregory 	mace 
  625	Micah Anderson 	micah 
  626	Michael Ablassmeier 	abi 
  627	Michael Banck 	mbanck 
  628	Michael Beattie 	mjb 
  629	Michael Biebl 	biebl 
  630	Michael Bramer 	grisu 
  631	Michael C. Schultheiss 	schultmc 
  632	Michael D. Mattice 	mattice 
  633	Michael Fladischer 	fladi 
  634	Michael Gilbert 	mgilbert 
  635	Michael Hanke 	mih 
  636	Michael Hudson-Doyle 	mwhudson 
  637	Michael Janssen 	jamuraa 
  638	Michael Jeanson 	mjeanson 
  639	Michael Lustfield 	mtecknology 
  640	Michael Meskes 	meskes 
  641	Michael Prokop 	mika 
  642	Michael Schiansky 	ms 
  643	Michael Schlueter 	schlue 
  644	Michael Schmitz 	schmitz 
  645	Michael Schutte 	michi 
  646	Michael Stapelberg 	stapelberg 
  647	Michael Stone 	mstone 
  648	Michael Tautschnig 	mt 
  649	Michael Tokarev 	mjt 
  650	Michael Vogt 	mvo 
  651	Michal Arbet 	kevko 
  652	Michal Cihar 	nijel 
  653	Micha Lenk 	micha 
  654	Miguel Landaeta 	nomadium 
  655	Mikael Djurfeldt 	mdj 
  656	Mike Gabriel 	sunweaver 
  657	Mike Hommey 	glandium 
  658	Mike Markley 	madhack 
  659	Mike Miller 	mtmiller 
  660	Mikhail Gusarov 	dottedmag 
  661	Milan Kupcevic 	milan 
  662	Milan Zamazal 	pdm 
  663	Ming-ting Yao Wei 	mwei 
  664	Miquel van Smoorenburg 	miquels 
  665	Mirco Bauer 	meebey 
  666	Miriam Ruiz 	miriam 
  667	M J Ray 	mjr 
  668	Modestas Vainius 	modax 
  669	Mohammed Adnène Trojette 	adn 
  670	Mohammed Sameer 	msameer 
  671	Molly de Blanc 	mollydb 
  672	Mònica Ramírez Arceda 	monica 
  673	Moray Allan 	moray 
  674	Moritz Muehlenhoff 	jmm 
  675	Morten Werner Forsbring 	werner 
  676	Mo Zhou 	lumin 
  677	Muammar El Khatib 	muammar 
  678	Murat Demirten 	murat 
  679	Mutsumi Ishikawa 	ishikawa 
  680	Nathaniel Harrison Handler 	nhandler 
  681	Nathan Scott 	nathans 
  682	Nattie Mayer-Hutchings 	nattie 
  683	Neil A. Schemenauer 	nas 
  684	Neil L. Roeth 	neil 
  685	Neil McGovern 	neilm 
  686	Neil Williams 	codehelp 
  687	Neutron Soutmun 	neutrons 
  688	Nicholas Breen 	nbreen 
  689	Nick Morrott 	nickm 
  690	Nick Phillips 	nwp 
  691	Nicolas Bertolissio 	bertol 
  692	Nicolas Boulenguez 	nicolas 
  693	Nicolas Boullis 	nboullis 
  694	Nicolas Braud-Santoni 	nicoo 
  695	Nicolas Dandrimont 	olasd 
  696	Niels Thykier 	nthykier 
  697	NIIBE Yutaka 	gniibe 
  698	Niko Tyni 	ntyni 
  699	Nils Boeffel 	lohner 
  700	Niv Sardi-Altivanik 	xaiki 
  701	Noah Meyerhans 	noahm 
  702	Nobuhiro Iwamatsu 	iwamatsu 
  703	Noèl Köthe 	noel 
  704	Norbert Preining 	preining 
  705	Norbert Tretkowski 	nobse 
  706	Norbert Veber 	nveber 
  707	Obey Arthur Liu 	arthurliu 
  708	Ognyan Kulev 	ogi 
  709	Ola Lundqvist 	opal 
  710	Olek Wojnar 	olek 
  711	Ole Streicher 	olebole 
  712	Olivier Sallou 	osallou 
  713	Olly Betts 	olly 
  714	Ondřej Čertík 	certik 
  715	Ondřej Kobližek 	kobla 
  716	Ondřej Nový 	onovy 
  717	Ondrej Sury 	ondrej 
  718	Osamu Aoki 	osamu 
  719	Otto Kekäläinen 	otto 
  720	Ove Kåven 	ovek 
  721	Øystein Gisnås 	shaka 
  722	Pablo Lorenzzoni 	spectra 
  723	Paride Legovini 	paride 
  724	Pascal Hakim 	pasc 
  725	Patrick Matthäi 	pmatthaei 
  726	Patrick Ouellette 	pouelle 
  727	Patryk Cisek 	patryk 
  728	Patty Langasek 	harmoney 
  729	Paul Brossier 	piem 
  730	Paul Cannon 	pik 
  731	Paul Cupis 	cupis 
  732	Paul D. Bame 	bame 
  733	Paul Martin 	pm 
  734	Paul Mathijs Gevers 	elbrus 
  735	Paulo Henrique de Lima Santana 	phls 
  736	Paul Richards Tagliamonte 	paultag 
  737	Paul Slootman 	paul 
  738	Paul van Tilburg 	paulvt 
  739	Paul Waite 	paulwaite 
  740	Paul Wise 	pabs 
  741	Per Andersson 	avtobiff 
  742	Peter De Schrijver 	p2 
  743	Peter Eisentraut 	petere 
  744	Peter Kelemen 	fuji 
  745	Peter Michael Green 	plugwash 
  746	Peter Palfrader 	weasel 
  747	Peter Pentchev 	roam 
  748	Peter S. Galbraith 	psg 
  749	Peter Van Eynde 	pvaneynd 
  750	Petr Cech 	cech 
  751	Petter Reinholdtsen 	pere 
  752	Phil Brooke 	pjb 
  753	Philip Hands 	philh 
  754	Philippe Thierry 	philou 
  755	Philipp Huebner 	debalance 
  756	Philipp Hug 	hug 
  757	Philipp Kern 	pkern 
  758	Philipp Matthias Hahn 	pmhahn 
  759	Pierre Chifflier 	pollux 
  760	Pierre-Elliott Bécue 	peb 
  761	Pino Toscano 	pino 
  762	Piotr Ożarowski 	piotr 
  763	Piotr Roszatycki 	dexter 
  764	Prach Pongpanich 	prach 
  765	Praveen Arimbrathodiyil 	praveen 
  766	Punit Agrawal 	punit 
  767	Radovan Garabik 	garabik 
  768	Rafael Laboissiere 	rafael 
  769	Ralf Treinen 	treinen 
  770	Raphael Bossek 	bossekr 
  771	Raphael Geissert 	geissert 
  772	Raphaël Hertzog 	hertzog 
  773	Recai Oktas 	roktas 
  774	Reinhard Tartler 	siretart 
  775	Remi Vanicat 	vanicat 
  776	Rene Engelhard 	rene 
  777	Rene Mayorga 	rmayorga 
  778	Rene Mayrhofer 	rmayr 
  779	Rene Weber 	rweber 
  780	Rhonda D'Vine 	rhonda 
  781	Ricardo Mones Lastra 	mones 
  782	Riccardo Setti 	giskard 
  783	Richard A. Nelson 	cowboy 
  784	Richard Hecker 	hecker 
  785	Richard Kreckel 	kreckel 
  786	Richard Michael Hartmann 	richih 
  787	Riku Voipio 	riku 
  788	RISKO Gergely 	risko 
  789	Ritesh Raj Sarraf 	rrs 
  790	Rob Bradford 	robster 
  791	Rob Browning 	rlb 
  792	Robert Alan Larson 	blarson 
  793	Robert Edmonds 	edmonds 
  794	Robert Haist 	rha 
  795	Robert Lemmen 	robertle 
  796	Robert Luberda 	robert 
  797	Robert Millan 	rmh 
  798	Roberto C. Sanchez 	roberto 
  799	Roberto Lumbreras 	rover 
  800	Robert Woodcock 	rcw 
  801	Robie Basak 	rbasak 
  802	Roger Shimizu 	rosh 
  803	Roland Dreier 	rbd 
  804	Roland Fehrenbacher 	rfehren 
  805	Roland Marcus Rutschmann 	rudi 
  806	Roland Mas 	lolando 
  807	Roland Rosenfeld 	roland 
  808	Romain Francoise 	rfrancoise 
  809	Ron Lee 	ron 
  810	Ross Burton 	ross 
  811	Ross Gammon 	rossgammon 
  812	Ross Peachey 	rcp 
  813	Ross Vandegrift 	rvandegrift 
  814	Ruben Undheim 	rubund 
  815	Russ Allbery 	rra 
  816	Russell Coker 	etbe 
  817	Russell Stuart 	ras 
  818	Ryan Kavanagh 	rak 
  819	Ryan M. Golbeck 	rmgolbeck 
  820	Salvador Abreu 	spa 
  821	Salvatore Bonaccorso 	carnil 
  822	Sam Clegg 	samo 
  823	Sam Hartman 	hartmans 
  824	Sam Johnston 	samj 
  825	Samuel Henrique 	samueloph 
  826	Samuel Hocevar 	sho 
  827	Samuel Mimram 	smimram 
  828	Samuel Thibault 	sthibault 
  829	Sandro Knauß 	hefee 
  830	Sandro Tosi 	morph 
  831	Santiago Garcia Mantinan 	manty 
  832	Santiago Ruano Rincón 	santiago 
  833	Santiago Vila 	sanvila 
  834	Sascha Steinbiss 	satta 
  835	Scott James Remnant 	keybuk 
  836	Scott Kitterman 	kitterman 
  837	Scott Sheridan Howard 	showard 
  838	Scott Talbert 	swt2c 
  839	Sean Whitton 	spwhitton 
  840	Sebastiaan Couwenberg 	sebastic 
  841	Sebastian Andrzej Siewior 	bigeasy 
  842	Sebastian Dröge 	slomo 
  843	Sebastian Harl 	tokkee 
  844	Sebastian Ramacher 	sramacher 
  845	Sebastian Reichel 	sre 
  846	Sebastian Rittau 	srittau 
  847	Sebastien Bacher 	seb128 
  848	Sebastien Badia 	sbadia 
  849	Sebastien Delafond 	seb 
  850	Sébastien Villemot 	sebastien 
  851	Serafeim Zanikolas 	sez 
  852	Sergei Golovan 	sgolovan 
  853	Sergio Durigan Junior 	sergiodj 
  854	Sergio Talens-Oliag 	sto 
  855	Shachar Shemesh 	shachar 
  856	Shane Wegner 	shane 
  857	Shaun Jackman 	sjackman 
  858	Shengjing Zhu 	zhsj 
  859	Shigeo Noshiro 	noshiro 
  860	Shih-Yuan Lee 	fourdollars 
  861	Shugo Maeda 	shugo 
  862	Siegfried-Angel Gevatter Pujals 	sgevatter 
  863	Simon Horman 	horms 
  864	Simon Josefsson 	jas 
  865	Simon Kainz 	skainz 
  866	Simon Kelley 	srk 
  867	Simon McVittie 	smcv 
  868	Simon Quigley 	tsimonq2 
  869	Simon Richter 	sjr 
  870	Sjoerd Simons 	sjoerd 
  871	Sruthi Chandran 	srud 
  872	Stefan Alfredsson 	alfs 
  873	Stefan Fritsch 	sf 
  874	Stefan Hornburg 	racke 
  875	Stefano Rivera 	stefanor 
  876	Stefano Zacchiroli 	zack 
  877	Stefan Pfetzing 	dreamind 
  878	Steffen Möller 	moeller 
  879	Steinar H. Gunderson 	sesse 
  880	Stein Magnus Jodal 	jodal 
  881	Stéphane Blondon 	sblondon 
  882	Stéphane Glondu 	glondu 
  883	Stephan Suerken 	absurd 
  884	Stephen Frost 	sfrost 
  885	Stephen Gelman 	ssgelm 
  886	Stephen Gran 	sgran 
  887	Stephen Kitt 	skitt 
  888	Stephen Leake 	stephe 
  889	Stephen R. Marenka 	smarenka 
  890	Steve Kemp 	skx 
  891	Steve Kostecke 	steve 
  892	Steve Kowalik 	stevenk 
  893	Steve Langasek 	vorlon 
  894	Steve McIntyre 	93sam 
  895	Steven Chamberlain 	stevenc 
  896	Steven Michael Robbins 	smr 
  897	Stig Sandbeck Mathisen 	ssm 
  898	Stuart Prescott 	stuart 
  899	Stuart Teasdale 	sdt 
  900	Sune Vuorela 	sune 
  901	Sven Bartscher 	kritzefitz 
  902	Sven Eckelmann 	ecsv 
  903	Sven Hoexter 	hoexter 
  904	Sven Mueller 	sven 
  905	Sylvain Beucler 	beuc 
  906	Sylvestre Ledru 	sylvestre 
  907	SZ Lin 	szlin 
  908	Takaki Taniguchi 	takaki 
  909	Takatsugu Nokubi 	knok 
  910	Takeshi YAEGASHI 	yaegashi 
  911	Takuo KITAME 	kitame 
  912	Taku Yasui 	tach 
  913	Tamas Szerb 	toma 
  914	Tanguy Ortolo 	tanguy 
  915	Taowa Munene-Tardif 	taowa 
  916	Tássia Camões Araújo 	tassia 
  917	Tatsuya Kinoshita 	tats 
  918	Teemu Hukkanen 	tjhukkan 
  919	Teruyuki Morimura 	morimura 
  920	Teus Benschop 	teusbenschop 
  921	Thaddeus H. Black 	thb 
  922	Thadeu Cascardo 	cascardo 
  923	Theodore Y. Ts'o 	tytso 
  924	Theppitak Karoonboonyanan 	thep 
  925	Thibaut Jean-Claude Paumard 	thibaut 
  926	Thierry Randrianiriana 	thierry 
  927	Thijs Kinkhorst 	thijs 
  928	Thomas Bushnell 	tb 
  929	Thomas Girard 	tgg 
  930	Thomas Goirand 	zigo 
  931	Thomas Koch 	thk 
  932	Thomas Lange 	lange 
  933	Thomas Preud'homme 	robotux 
  934	Thomas Schmidt 	tschmidt 
  935	Thomas Vincent 	tvincent 
  936	Thomas Wana 	greuff 
  937	Thomas Weber 	tweber 
  938	Thom May 	thom 
  939	Thorsten Alteholz 	alteholz 
  940	Thorsten Glaser 	tg 
  941	Thorvald Natvig 	thorvald 
  942	Tiago Bortoletto Vaz 	tiago 
  943	Tianon Gravi 	tianon 
  944	Tim Cutts 	tjrc1 
  945	Timo Aaltonen 	tjaalton 
  946	Timo Juhani Lindfors 	lindi 
  947	Timo Jyrinki 	timo 
  948	Timothy Martin Potter 	tpot 
  949	Timo Weingärtner 	tiwe 
  950	Tim Retout 	diocles 
  951	Tim Riker 	timr 
  952	Tobias Frost 	tobi 
  953	Tobias Grimm 	etobi 
  954	Tobias Hansen 	thansen 
  955	Tobias Quathamer 	toddy 
  956	Tollef Fog Heen 	tfheen 
  957	Tomas Fasth 	tomfa 
  958	Tomas Pospisek 	tpo 
  959	Tomasz Buchert 	tomasz 
  960	Tomasz Rybak 	serpent 
  961	Tommi Vainikainen 	tvainika 
  962	Toni Mueller 	toni 
  963	Tony Mancill 	tmancill 
  964	Torsten Landschoff 	torsten 
  965	Torsten Marek 	shlomme 
  966	Torsten Werner 	twerner 
  967	Tristan Seligmann 	mithrandi 
  968	Troy Heber 	troyh 
  969	Tzafrir Cohen 	tzafrir 
  970	Ulises Vitulli 	dererk 
  971	Ulrich Dangel 	uli 
  972	Ulrike Uhlig 	ulrike 
  973	Unit 193 	unit193 
  974	Utkarsh Gupta 	utkarsh 
  975	Uwe Hermann 	uwe 
  976	Uwe Kleine-König 	ukleinek 
  977	Uwe Steinmann 	steinm 
  978	Vagrant Cascadian 	vagrant 
  979	Valentin Vidic 	vvidic 
  980	Varun Hiremath 	varun 
  981	Vasudev Sathish Kamath 	vasudev 
  982	Victor Seva 	vseva 
  983	Vincent Bernat 	bernat 
  984	Vincent Cheng 	vcheng 
  985	Vincent Danjean 	vdanjean 
  986	Vincent Legout 	vlegout 
  987	Vincent Sanders 	vince 
  988	Wartan Hachaturow 	wart 
  989	Werner Heuser 	wehe 
  990	Wesley W. Terpstra 	terpstra 
  991	William Blough 	bblough 
  992	Willi Mann 	willi 
  993	Will Newton 	will 
  994	Wilmer van der Gaast 	lintux 
  995	Wolfgang Borgert 	debacle 
  996	Wookey 	wookey 
  997	Wouter Verhelst 	wouter 
  998	Xavier Guimard 	yadd 
  999	Xavier Lüthi 	xluthi 
 1000	Xavier Roche 	xavier 
 1001	Ximin Luo 	infinity0 
 1002	Yann Dirson 	dirson 
 1003	Yaroslav Halchenko 	yoh 
 1004	Yasuhiro Araki 	ar 
 1005	Ying-Chun Liu 	paulliu 
 1006	Yukiharu Yabuki 	yyabuki 
 1007	YunQiang Su 	syq 
 1008	Yuuma Oohara 	oohara 
 1009	Yves-Alexis Perez 	corsac 
 1010	Zed Pobre 	zed 
 1011	Zlatan Todoric 	zlatan 
