<define-tag pagetitle>DLA-911-1 tiff</define-tag>
<define-tag report_date>2017-4-24</define-tag>
<define-tag secrefs>CVE-2017-7592 CVE-2017-7593 CVE-2017-7594 CVE-2017-7595 CVE-2017-7596 CVE-2017-7597 CVE-2017-7598 CVE-2017-7599 CVE-2017-7600 CVE-2017-7601 CVE-2017-7602 Bug#859998 Bug#860000 Bug#860001 Bug#860003</define-tag>
<define-tag packages>tiff</define-tag>
<define-tag isvulnerable>yes</define-tag>
<define-tag fixed>yes</define-tag>
<define-tag fixed-section>no</define-tag>

#use wml::debian::security

