<define-tag pagetitle>DLA-1050-1 xchat</define-tag>
<define-tag report_date>2017-8-10</define-tag>
<define-tag secrefs>CVE-2016-2087 Bug#852275</define-tag>
<define-tag packages>xchat</define-tag>
<define-tag isvulnerable>yes</define-tag>
<define-tag fixed>yes</define-tag>
<define-tag fixed-section>no</define-tag>

#use wml::debian::security

