<define-tag pagetitle>DLA-1300-1 xen</define-tag>
<define-tag report_date>2018-3-6</define-tag>
<define-tag secrefs>CVE-2018-7540 CVE-2018-7541</define-tag>
<define-tag packages>xen</define-tag>
<define-tag isvulnerable>yes</define-tag>
<define-tag fixed>yes</define-tag>
<define-tag fixed-section>no</define-tag>

#use wml::debian::security

