<define-tag pagetitle>DLA-1559-1 xen</define-tag>
<define-tag report_date>2018-10-30</define-tag>
<define-tag secrefs>CVE-2017-15592 CVE-2017-15593 CVE-2017-15594 CVE-2017-15595 CVE-2017-17044 CVE-2017-17045 CVE-2018-10472 CVE-2018-10981</define-tag>
<define-tag packages>xen</define-tag>
<define-tag isvulnerable>yes</define-tag>
<define-tag fixed>yes</define-tag>
<define-tag fixed-section>no</define-tag>

#use wml::debian::security

