<define-tag pagetitle>DSA-4493-1 postgresql-11</define-tag>
<define-tag report_date>2019-8-08</define-tag>
<define-tag secrefs>CVE-2019-10208 CVE-2019-10209</define-tag>
<define-tag packages>postgresql-11</define-tag>
<define-tag isvulnerable>yes</define-tag>
<define-tag fixed>yes</define-tag>
<define-tag fixed-section>no</define-tag>

#use wml::debian::security



</dl>
