<define-tag pagetitle>DLA-1654-1 libav</define-tag>
<define-tag report_date>2019-2-6</define-tag>
<define-tag secrefs>CVE-2014-8542 CVE-2015-1207 CVE-2017-7863 CVE-2017-7865 CVE-2017-14169 CVE-2017-14223</define-tag>
<define-tag packages>libav</define-tag>
<define-tag isvulnerable>yes</define-tag>
<define-tag fixed>yes</define-tag>
<define-tag fixed-section>no</define-tag>

#use wml::debian::security

