<define-tag pagetitle>DLA-1650-1 rssh</define-tag>
<define-tag report_date>2019-1-30</define-tag>
<define-tag secrefs>CVE-2019-1000018 Bug#919623</define-tag>
<define-tag packages>rssh</define-tag>
<define-tag isvulnerable>yes</define-tag>
<define-tag fixed>yes</define-tag>
<define-tag fixed-section>no</define-tag>

#use wml::debian::security

