<define-tag pagetitle>DLA-1868-1 squirrelmail</define-tag>
<define-tag report_date>2019-08-01</define-tag>
<define-tag secrefs>CVE-2019-12970</define-tag>
<define-tag packages>squirrelmail</define-tag>
<define-tag isvulnerable>yes</define-tag>
<define-tag fixed>yes</define-tag>
<define-tag fixed-section>no</define-tag>

#use wml::debian::security

