<define-tag pagetitle>DLA-1925-1 python2.7</define-tag>
<define-tag report_date>2019-09-16</define-tag>
<define-tag secrefs>CVE-2019-16056</define-tag>
<define-tag packages>python2.7</define-tag>
<define-tag isvulnerable>yes</define-tag>
<define-tag fixed>yes</define-tag>
<define-tag fixed-section>no</define-tag>

#use wml::debian::security

