<define-tag pagetitle>DLA-470-1 libksba</define-tag>
<define-tag report_date>2016-5-13</define-tag>
<define-tag secrefs>CVE-2016-4579</define-tag>
<define-tag packages>libksba</define-tag>
<define-tag isvulnerable>yes</define-tag>
<define-tag fixed>yes</define-tag>
<define-tag fixed-section>no</define-tag>

#use wml::debian::security

